%YAML 1.1
%TAG !u! tag:unity3d.com,2011:
--- !u!74 &7400000
AnimationClip:
  m_ObjectHideFlags: 0
  m_PrefabParentObject: {fileID: 0}
  m_PrefabInternal: {fileID: 0}
  m_Name: Gen3_Push
  serializedVersion: 6
  m_Legacy: 0
  m_Compressed: 0
  m_UseHighQualityCurve: 1
  m_RotationCurves: []
  m_CompressedRotationCurves: []
  m_EulerCurves: []
  m_PositionCurves: []
  m_ScaleCurves: []
  m_FloatCurves: []
  m_PPtrCurves:
  - curve:
    - time: 0
      value: {fileID: 21300000, guid: 43819b88b8be488428ba8c98310fb4f4, type: 3}
    - time: 0.05
      value: {fileID: 21300000, guid: 0a7e532913ac371448c1e526bdf0d62f, type: 3}
    - time: 0.1
      value: {fileID: 21300000, guid: ec3b51a2d7ffece419d0d75f451ebd11, type: 3}
    - time: 0.15
      value: {fileID: 21300000, guid: 108c5cbdc76355c49a121bc537714651, type: 3}
    - time: 0.2
      value: {fileID: 21300000, guid: a870f76f8e00f8f4fa8e2402166fcb93, type: 3}
    - time: 0.25
      value: {fileID: 21300000, guid: f9c55df5ab1b4f94587978372b22c74b, type: 3}
    - time: 0.3
      value: {fileID: 21300000, guid: b7a21c944adf4f345aadebd15c4234b7, type: 3}
    - time: 0.35
      value: {fileID: 21300000, guid: 7c732fa626c2cf14da1fd8d535ff1a07, type: 3}
    attribute: m_Sprite
    path: 
    classID: 212
    script: {fileID: 0}
  m_SampleRate: 20
  m_WrapMode: 0
  m_Bounds:
    m_Center: {x: 0, y: 0, z: 0}
    m_Extent: {x: 0, y: 0, z: 0}
  m_ClipBindingConstant:
    genericBindings:
    - path: 0
      attribute: 0
      script: {fileID: 0}
      classID: 212
      customType: 23
      isPPtrCurve: 1
    pptrCurveMapping:
    - {fileID: 21300000, guid: 43819b88b8be488428ba8c98310fb4f4, type: 3}
    - {fileID: 21300000, guid: 0a7e532913ac371448c1e526bdf0d62f, type: 3}
    - {fileID: 21300000, guid: ec3b51a2d7ffece419d0d75f451ebd11, type: 3}
    - {fileID: 21300000, guid: 108c5cbdc76355c49a121bc537714651, type: 3}
    - {fileID: 21300000, guid: a870f76f8e00f8f4fa8e2402166fcb93, type: 3}
    - {fileID: 21300000, guid: f9c55df5ab1b4f94587978372b22c74b, type: 3}
    - {fileID: 21300000, guid: b7a21c944adf4f345aadebd15c4234b7, type: 3}
    - {fileID: 21300000, guid: 7c732fa626c2cf14da1fd8d535ff1a07, type: 3}
  m_AnimationClipSettings:
    serializedVersion: 2
    m_AdditiveReferencePoseClip: {fileID: 0}
    m_AdditiveReferencePoseTime: 0
    m_StartTime: 0
    m_StopTime: 0.4
    m_OrientationOffsetY: 0
    m_Level: 0
    m_CycleOffset: 0
    m_HasAdditiveReferencePose: 0
    m_LoopTime: 1
    m_LoopBlend: 0
    m_LoopBlendOrientation: 0
    m_LoopBlendPositionY: 0
    m_LoopBlendPositionXZ: 0
    m_KeepOriginalOrientation: 0
    m_KeepOriginalPositionY: 1
    m_KeepOriginalPositionXZ: 0
    m_HeightFromFeet: 0
    m_Mirror: 0
  m_EditorCurves: []
  m_EulerEditorCurves: []
  m_HasGenericRootTransform: 0
  m_HasMotionFloatCurves: 0
  m_GenerateMotionCurves: 0
  m_Events: []
