%YAML 1.1
%TAG !u! tag:unity3d.com,2011:
--- !u!74 &7400000
AnimationClip:
  m_ObjectHideFlags: 0
  m_PrefabParentObject: {fileID: 0}
  m_PrefabInternal: {fileID: 0}
  m_Name: Gen3_Pull
  serializedVersion: 6
  m_Legacy: 0
  m_Compressed: 0
  m_UseHighQualityCurve: 1
  m_RotationCurves: []
  m_CompressedRotationCurves: []
  m_EulerCurves: []
  m_PositionCurves: []
  m_ScaleCurves: []
  m_FloatCurves: []
  m_PPtrCurves:
  - curve:
    - time: 0
      value: {fileID: 21300000, guid: 9ad76c1a948b1a2479814be930cd4cd1, type: 3}
    - time: 0.05
      value: {fileID: 21300000, guid: 778df74e0f157d84a8b731bc691ffb14, type: 3}
    - time: 0.1
      value: {fileID: 21300000, guid: b9a4accec96de89448a4d2fc78ce30d3, type: 3}
    - time: 0.15
      value: {fileID: 21300000, guid: 202ef651b7859224fa4a624dd5734159, type: 3}
    - time: 0.2
      value: {fileID: 21300000, guid: 4f55e2196fe76814cadaa01921bc373d, type: 3}
    - time: 0.25
      value: {fileID: 21300000, guid: 14676897b4172624f9dd75b865032479, type: 3}
    - time: 0.3
      value: {fileID: 21300000, guid: cc1e7e90043ffcb4faebfb0d592a6ebc, type: 3}
    - time: 0.35
      value: {fileID: 21300000, guid: 634b2df4ed43a8941ae3772d2e5c91f2, type: 3}
    attribute: m_Sprite
    path: 
    classID: 212
    script: {fileID: 0}
  m_SampleRate: 20
  m_WrapMode: 0
  m_Bounds:
    m_Center: {x: 0, y: 0, z: 0}
    m_Extent: {x: 0, y: 0, z: 0}
  m_ClipBindingConstant:
    genericBindings:
    - path: 0
      attribute: 0
      script: {fileID: 0}
      classID: 212
      customType: 23
      isPPtrCurve: 1
    pptrCurveMapping:
    - {fileID: 21300000, guid: 9ad76c1a948b1a2479814be930cd4cd1, type: 3}
    - {fileID: 21300000, guid: 778df74e0f157d84a8b731bc691ffb14, type: 3}
    - {fileID: 21300000, guid: b9a4accec96de89448a4d2fc78ce30d3, type: 3}
    - {fileID: 21300000, guid: 202ef651b7859224fa4a624dd5734159, type: 3}
    - {fileID: 21300000, guid: 4f55e2196fe76814cadaa01921bc373d, type: 3}
    - {fileID: 21300000, guid: 14676897b4172624f9dd75b865032479, type: 3}
    - {fileID: 21300000, guid: cc1e7e90043ffcb4faebfb0d592a6ebc, type: 3}
    - {fileID: 21300000, guid: 634b2df4ed43a8941ae3772d2e5c91f2, type: 3}
  m_AnimationClipSettings:
    serializedVersion: 2
    m_AdditiveReferencePoseClip: {fileID: 0}
    m_AdditiveReferencePoseTime: 0
    m_StartTime: 0
    m_StopTime: 0.4
    m_OrientationOffsetY: 0
    m_Level: 0
    m_CycleOffset: 0
    m_HasAdditiveReferencePose: 0
    m_LoopTime: 1
    m_LoopBlend: 0
    m_LoopBlendOrientation: 0
    m_LoopBlendPositionY: 0
    m_LoopBlendPositionXZ: 0
    m_KeepOriginalOrientation: 0
    m_KeepOriginalPositionY: 1
    m_KeepOriginalPositionXZ: 0
    m_HeightFromFeet: 0
    m_Mirror: 0
  m_EditorCurves: []
  m_EulerEditorCurves: []
  m_HasGenericRootTransform: 0
  m_HasMotionFloatCurves: 0
  m_GenerateMotionCurves: 0
  m_Events: []
