%YAML 1.1
%TAG !u! tag:unity3d.com,2011:
--- !u!74 &7400000
AnimationClip:
  m_ObjectHideFlags: 0
  m_PrefabParentObject: {fileID: 0}
  m_PrefabInternal: {fileID: 0}
  m_Name: Pull
  serializedVersion: 6
  m_Legacy: 0
  m_Compressed: 0
  m_UseHighQualityCurve: 1
  m_RotationCurves: []
  m_CompressedRotationCurves: []
  m_EulerCurves: []
  m_PositionCurves: []
  m_ScaleCurves: []
  m_FloatCurves:
  - curve:
      serializedVersion: 2
      m_Curve:
      - time: 0
        value: 1
        inSlope: -1.9999999
        outSlope: -1.9999999
        tangentMode: 10
      - time: 0.2
        value: 0.6
        inSlope: -1.9999999
        outSlope: -1.9999999
        tangentMode: 10
      m_PreInfinity: 2
      m_PostInfinity: 2
      m_RotationOrder: 4
    attribute: m_Volume
    path: 
    classID: 82
    script: {fileID: 0}
  m_PPtrCurves:
  - curve:
    - time: 0
      value: {fileID: 21300000, guid: 212d42c1a7ad4734da51e37024bc58ba, type: 3}
    - time: 0.05
      value: {fileID: 21300000, guid: e9d65501010bd2e4d8e63ea78d998402, type: 3}
    - time: 0.1
      value: {fileID: 21300000, guid: 8e67df7a558d87449908befc415ba495, type: 3}
    - time: 0.15
      value: {fileID: 21300000, guid: 035225e535124a2489519286e3b414ca, type: 3}
    - time: 0.2
      value: {fileID: 21300000, guid: 222d0d57c63c4a64c8a5087aad5134a1, type: 3}
    - time: 0.25
      value: {fileID: 21300000, guid: b6e8161d040886d43996708532bf317e, type: 3}
    - time: 0.3
      value: {fileID: 21300000, guid: 3cf343c880b028842bea1da3efc1642c, type: 3}
    - time: 0.35
      value: {fileID: 21300000, guid: 3722a1fca78c3b14ea6134e0e2e1ac5c, type: 3}
    attribute: m_Sprite
    path: 
    classID: 212
    script: {fileID: 0}
  m_SampleRate: 20
  m_WrapMode: 0
  m_Bounds:
    m_Center: {x: 0, y: 0, z: 0}
    m_Extent: {x: 0, y: 0, z: 0}
  m_ClipBindingConstant:
    genericBindings:
    - path: 0
      attribute: 4104493590
      script: {fileID: 0}
      classID: 82
      customType: 0
      isPPtrCurve: 0
    - path: 0
      attribute: 0
      script: {fileID: 0}
      classID: 212
      customType: 23
      isPPtrCurve: 1
    pptrCurveMapping:
    - {fileID: 21300000, guid: 212d42c1a7ad4734da51e37024bc58ba, type: 3}
    - {fileID: 21300000, guid: e9d65501010bd2e4d8e63ea78d998402, type: 3}
    - {fileID: 21300000, guid: 8e67df7a558d87449908befc415ba495, type: 3}
    - {fileID: 21300000, guid: 035225e535124a2489519286e3b414ca, type: 3}
    - {fileID: 21300000, guid: 222d0d57c63c4a64c8a5087aad5134a1, type: 3}
    - {fileID: 21300000, guid: b6e8161d040886d43996708532bf317e, type: 3}
    - {fileID: 21300000, guid: 3cf343c880b028842bea1da3efc1642c, type: 3}
    - {fileID: 21300000, guid: 3722a1fca78c3b14ea6134e0e2e1ac5c, type: 3}
  m_AnimationClipSettings:
    serializedVersion: 2
    m_AdditiveReferencePoseClip: {fileID: 0}
    m_AdditiveReferencePoseTime: 0
    m_StartTime: 0
    m_StopTime: 0.4
    m_OrientationOffsetY: 0
    m_Level: 0
    m_CycleOffset: 0
    m_HasAdditiveReferencePose: 0
    m_LoopTime: 1
    m_LoopBlend: 0
    m_LoopBlendOrientation: 0
    m_LoopBlendPositionY: 0
    m_LoopBlendPositionXZ: 0
    m_KeepOriginalOrientation: 0
    m_KeepOriginalPositionY: 1
    m_KeepOriginalPositionXZ: 0
    m_HeightFromFeet: 0
    m_Mirror: 0
  m_EditorCurves:
  - curve:
      serializedVersion: 2
      m_Curve:
      - time: 0
        value: 1
        inSlope: -1.9999999
        outSlope: -1.9999999
        tangentMode: 10
      - time: 0.2
        value: 0.6
        inSlope: -1.9999999
        outSlope: -1.9999999
        tangentMode: 10
      m_PreInfinity: 2
      m_PostInfinity: 2
      m_RotationOrder: 4
    attribute: m_Volume
    path: 
    classID: 82
    script: {fileID: 0}
  m_EulerEditorCurves: []
  m_HasGenericRootTransform: 0
  m_HasMotionFloatCurves: 0
  m_GenerateMotionCurves: 0
  m_Events:
  - time: 0.2
    functionName: PlayRandom
    data: 
    objectReferenceParameter: {fileID: 0}
    floatParameter: 0
    intParameter: 0
    messageOptions: 0
